+------------------------+
|                        |
| CORNER STORE           |
|                        |
| 2014-06-25 04:38PM     |
|                        |
| Gallons: 12.464        |
| Price/gallon: $ 3.459  |
|                        |
| Fuel total: $ 43.11    |
|                        |
+------------------------+
